(['/home/tamamo/git/konglocal/gen.py'],
 ['/home/tamamo/git/konglocal'],
 [],
 ['/home/tamamo/.local/lib/python3.10/site-packages/numpy/_pyinstaller',
  '/home/tamamo/.local/lib/python3.10/site-packages/flet/__pyinstaller',
  '/usr/local/lib/python3.10/dist-packages/_pyinstaller_hooks_contrib/hooks/stdhooks',
  '/usr/local/lib/python3.10/dist-packages/_pyinstaller_hooks_contrib/hooks'],
 {},
 [],
 [],
 False,
 {},
 [],
 [],
 '3.10.12 (main, Nov 20 2023, 15:14:05) [GCC 11.4.0]',
 [('pyi_rth_inspect',
   '/usr/local/lib/python3.10/dist-packages/PyInstaller/hooks/rthooks/pyi_rth_inspect.py',
   'PYSOURCE'),
  ('gen', '/home/tamamo/git/konglocal/gen.py', 'PYSOURCE')],
 [('inspect', '/usr/lib/python3.10/inspect.py', 'PYMODULE'),
  ('importlib', '/usr/lib/python3.10/importlib/__init__.py', 'PYMODULE'),
  ('importlib.abc', '/usr/lib/python3.10/importlib/abc.py', 'PYMODULE'),
  ('typing', '/usr/lib/python3.10/typing.py', 'PYMODULE'),
  ('contextlib', '/usr/lib/python3.10/contextlib.py', 'PYMODULE'),
  ('importlib._abc', '/usr/lib/python3.10/importlib/_abc.py', 'PYMODULE'),
  ('importlib._bootstrap_external',
   '/usr/lib/python3.10/importlib/_bootstrap_external.py',
   'PYMODULE'),
  ('importlib.metadata',
   '/usr/lib/python3.10/importlib/metadata/__init__.py',
   'PYMODULE'),
  ('importlib.metadata._itertools',
   '/usr/lib/python3.10/importlib/metadata/_itertools.py',
   'PYMODULE'),
  ('importlib.metadata._functools',
   '/usr/lib/python3.10/importlib/metadata/_functools.py',
   'PYMODULE'),
  ('importlib.metadata._collections',
   '/usr/lib/python3.10/importlib/metadata/_collections.py',
   'PYMODULE'),
  ('importlib.metadata._meta',
   '/usr/lib/python3.10/importlib/metadata/_meta.py',
   'PYMODULE'),
  ('importlib.metadata._adapters',
   '/usr/lib/python3.10/importlib/metadata/_adapters.py',
   'PYMODULE'),
  ('importlib.metadata._text',
   '/usr/lib/python3.10/importlib/metadata/_text.py',
   'PYMODULE'),
  ('email.message', '/usr/lib/python3.10/email/message.py', 'PYMODULE'),
  ('email.policy', '/usr/lib/python3.10/email/policy.py', 'PYMODULE'),
  ('email.contentmanager',
   '/usr/lib/python3.10/email/contentmanager.py',
   'PYMODULE'),
  ('email.quoprimime', '/usr/lib/python3.10/email/quoprimime.py', 'PYMODULE'),
  ('string', '/usr/lib/python3.10/string.py', 'PYMODULE'),
  ('email.headerregistry',
   '/usr/lib/python3.10/email/headerregistry.py',
   'PYMODULE'),
  ('email._header_value_parser',
   '/usr/lib/python3.10/email/_header_value_parser.py',
   'PYMODULE'),
  ('urllib', '/usr/lib/python3.10/urllib/__init__.py', 'PYMODULE'),
  ('email.iterators', '/usr/lib/python3.10/email/iterators.py', 'PYMODULE'),
  ('email.generator', '/usr/lib/python3.10/email/generator.py', 'PYMODULE'),
  ('copy', '/usr/lib/python3.10/copy.py', 'PYMODULE'),
  ('random', '/usr/lib/python3.10/random.py', 'PYMODULE'),
  ('statistics', '/usr/lib/python3.10/statistics.py', 'PYMODULE'),
  ('decimal', '/usr/lib/python3.10/decimal.py', 'PYMODULE'),
  ('_pydecimal', '/usr/lib/python3.10/_pydecimal.py', 'PYMODULE'),
  ('contextvars', '/usr/lib/python3.10/contextvars.py', 'PYMODULE'),
  ('fractions', '/usr/lib/python3.10/fractions.py', 'PYMODULE'),
  ('numbers', '/usr/lib/python3.10/numbers.py', 'PYMODULE'),
  ('hashlib', '/usr/lib/python3.10/hashlib.py', 'PYMODULE'),
  ('logging', '/usr/lib/python3.10/logging/__init__.py', 'PYMODULE'),
  ('pickle', '/usr/lib/python3.10/pickle.py', 'PYMODULE'),
  ('pprint', '/usr/lib/python3.10/pprint.py', 'PYMODULE'),
  ('dataclasses', '/usr/lib/python3.10/dataclasses.py', 'PYMODULE'),
  ('_compat_pickle', '/usr/lib/python3.10/_compat_pickle.py', 'PYMODULE'),
  ('struct', '/usr/lib/python3.10/struct.py', 'PYMODULE'),
  ('threading', '/usr/lib/python3.10/threading.py', 'PYMODULE'),
  ('_threading_local', '/usr/lib/python3.10/_threading_local.py', 'PYMODULE'),
  ('bisect', '/usr/lib/python3.10/bisect.py', 'PYMODULE'),
  ('_strptime', '/usr/lib/python3.10/_strptime.py', 'PYMODULE'),
  ('datetime', '/usr/lib/python3.10/datetime.py', 'PYMODULE'),
  ('calendar', '/usr/lib/python3.10/calendar.py', 'PYMODULE'),
  ('email._encoded_words',
   '/usr/lib/python3.10/email/_encoded_words.py',
   'PYMODULE'),
  ('base64', '/usr/lib/python3.10/base64.py', 'PYMODULE'),
  ('getopt', '/usr/lib/python3.10/getopt.py', 'PYMODULE'),
  ('gettext', '/usr/lib/python3.10/gettext.py', 'PYMODULE'),
  ('email.charset', '/usr/lib/python3.10/email/charset.py', 'PYMODULE'),
  ('email.encoders', '/usr/lib/python3.10/email/encoders.py', 'PYMODULE'),
  ('email.base64mime', '/usr/lib/python3.10/email/base64mime.py', 'PYMODULE'),
  ('email._policybase', '/usr/lib/python3.10/email/_policybase.py', 'PYMODULE'),
  ('email.header', '/usr/lib/python3.10/email/header.py', 'PYMODULE'),
  ('email.errors', '/usr/lib/python3.10/email/errors.py', 'PYMODULE'),
  ('email.utils', '/usr/lib/python3.10/email/utils.py', 'PYMODULE'),
  ('email._parseaddr', '/usr/lib/python3.10/email/_parseaddr.py', 'PYMODULE'),
  ('urllib.parse', '/usr/lib/python3.10/urllib/parse.py', 'PYMODULE'),
  ('socket', '/usr/lib/python3.10/socket.py', 'PYMODULE'),
  ('selectors', '/usr/lib/python3.10/selectors.py', 'PYMODULE'),
  ('quopri', '/usr/lib/python3.10/quopri.py', 'PYMODULE'),
  ('uu', '/usr/lib/python3.10/uu.py', 'PYMODULE'),
  ('optparse', '/usr/lib/python3.10/optparse.py', 'PYMODULE'),
  ('textwrap', '/usr/lib/python3.10/textwrap.py', 'PYMODULE'),
  ('zipfile', '/usr/lib/python3.10/zipfile.py', 'PYMODULE'),
  ('py_compile', '/usr/lib/python3.10/py_compile.py', 'PYMODULE'),
  ('lzma', '/usr/lib/python3.10/lzma.py', 'PYMODULE'),
  ('_compression', '/usr/lib/python3.10/_compression.py', 'PYMODULE'),
  ('bz2', '/usr/lib/python3.10/bz2.py', 'PYMODULE'),
  ('shutil', '/usr/lib/python3.10/shutil.py', 'PYMODULE'),
  ('tarfile', '/usr/lib/python3.10/tarfile.py', 'PYMODULE'),
  ('gzip', '/usr/lib/python3.10/gzip.py', 'PYMODULE'),
  ('fnmatch', '/usr/lib/python3.10/fnmatch.py', 'PYMODULE'),
  ('importlib.util', '/usr/lib/python3.10/importlib/util.py', 'PYMODULE'),
  ('pathlib', '/usr/lib/python3.10/pathlib.py', 'PYMODULE'),
  ('email', '/usr/lib/python3.10/email/__init__.py', 'PYMODULE'),
  ('email.parser', '/usr/lib/python3.10/email/parser.py', 'PYMODULE'),
  ('email.feedparser', '/usr/lib/python3.10/email/feedparser.py', 'PYMODULE'),
  ('csv', '/usr/lib/python3.10/csv.py', 'PYMODULE'),
  ('importlib.readers', '/usr/lib/python3.10/importlib/readers.py', 'PYMODULE'),
  ('importlib._bootstrap',
   '/usr/lib/python3.10/importlib/_bootstrap.py',
   'PYMODULE'),
  ('argparse', '/usr/lib/python3.10/argparse.py', 'PYMODULE'),
  ('token', '/usr/lib/python3.10/token.py', 'PYMODULE'),
  ('tokenize', '/usr/lib/python3.10/tokenize.py', 'PYMODULE'),
  ('importlib.machinery',
   '/usr/lib/python3.10/importlib/machinery.py',
   'PYMODULE'),
  ('dis', '/usr/lib/python3.10/dis.py', 'PYMODULE'),
  ('opcode', '/usr/lib/python3.10/opcode.py', 'PYMODULE'),
  ('ast', '/usr/lib/python3.10/ast.py', 'PYMODULE'),
  ('subprocess', '/usr/lib/python3.10/subprocess.py', 'PYMODULE'),
  ('signal', '/usr/lib/python3.10/signal.py', 'PYMODULE'),
  ('tracemalloc', '/usr/lib/python3.10/tracemalloc.py', 'PYMODULE'),
  ('stringprep', '/usr/lib/python3.10/stringprep.py', 'PYMODULE'),
  ('_py_abc', '/usr/lib/python3.10/_py_abc.py', 'PYMODULE'),
  ('cryptography.hazmat.primitives.asymmetric.rsa',
   '/usr/lib/python3/dist-packages/cryptography/hazmat/primitives/asymmetric/rsa.py',
   'PYMODULE'),
  ('cryptography.hazmat.primitives.asymmetric.utils',
   '/usr/lib/python3/dist-packages/cryptography/hazmat/primitives/asymmetric/utils.py',
   'PYMODULE'),
  ('cryptography.hazmat._der',
   '/usr/lib/python3/dist-packages/cryptography/hazmat/_der.py',
   'PYMODULE'),
  ('cryptography.hazmat',
   '/usr/lib/python3/dist-packages/cryptography/hazmat/__init__.py',
   'PYMODULE'),
  ('cryptography.hazmat.primitives._asymmetric',
   '/usr/lib/python3/dist-packages/cryptography/hazmat/primitives/_asymmetric.py',
   'PYMODULE'),
  ('cryptography.hazmat.primitives.hashes',
   '/usr/lib/python3/dist-packages/cryptography/hazmat/primitives/hashes.py',
   'PYMODULE'),
  ('cryptography.hazmat.primitives._serialization',
   '/usr/lib/python3/dist-packages/cryptography/hazmat/primitives/_serialization.py',
   'PYMODULE'),
  ('cryptography.hazmat.backends.interfaces',
   '/usr/lib/python3/dist-packages/cryptography/hazmat/backends/interfaces.py',
   'PYMODULE'),
  ('cryptography.exceptions',
   '/usr/lib/python3/dist-packages/cryptography/exceptions.py',
   'PYMODULE'),
  ('cryptography.utils',
   '/usr/lib/python3/dist-packages/cryptography/utils.py',
   'PYMODULE'),
  ('cryptography',
   '/usr/lib/python3/dist-packages/cryptography/__init__.py',
   'PYMODULE'),
  ('cryptography.hazmat.bindings.openssl.binding',
   '/usr/lib/python3/dist-packages/cryptography/hazmat/bindings/openssl/binding.py',
   'PYMODULE'),
  ('cryptography.hazmat.bindings',
   '/usr/lib/python3/dist-packages/cryptography/hazmat/bindings/__init__.py',
   'PYMODULE'),
  ('cryptography.hazmat.bindings.openssl._conditional',
   '/usr/lib/python3/dist-packages/cryptography/hazmat/bindings/openssl/_conditional.py',
   'PYMODULE'),
  ('cryptography.hazmat.bindings.openssl',
   '/usr/lib/python3/dist-packages/cryptography/hazmat/bindings/openssl/__init__.py',
   'PYMODULE'),
  ('cryptography.hazmat.backends.openssl.x509',
   '/usr/lib/python3/dist-packages/cryptography/hazmat/backends/openssl/x509.py',
   'PYMODULE'),
  ('cryptography.x509.name',
   '/usr/lib/python3/dist-packages/cryptography/x509/name.py',
   'PYMODULE'),
  ('cryptography.x509.oid',
   '/usr/lib/python3/dist-packages/cryptography/x509/oid.py',
   'PYMODULE'),
  ('cryptography.hazmat._oid',
   '/usr/lib/python3/dist-packages/cryptography/hazmat/_oid.py',
   'PYMODULE'),
  ('cryptography.x509.base',
   '/usr/lib/python3/dist-packages/cryptography/x509/base.py',
   'PYMODULE'),
  ('cryptography.x509.extensions',
   '/usr/lib/python3/dist-packages/cryptography/x509/extensions.py',
   'PYMODULE'),
  ('cryptography.x509.general_name',
   '/usr/lib/python3/dist-packages/cryptography/x509/general_name.py',
   'PYMODULE'),
  ('cryptography.x509.certificate_transparency',
   '/usr/lib/python3/dist-packages/cryptography/x509/certificate_transparency.py',
   'PYMODULE'),
  ('cryptography.hazmat.primitives.constant_time',
   '/usr/lib/python3/dist-packages/cryptography/hazmat/primitives/constant_time.py',
   'PYMODULE'),
  ('hmac', '/usr/lib/python3.10/hmac.py', 'PYMODULE'),
  ('ipaddress', '/usr/lib/python3.10/ipaddress.py', 'PYMODULE'),
  ('cryptography.hazmat.primitives.asymmetric.ed448',
   '/usr/lib/python3/dist-packages/cryptography/hazmat/primitives/asymmetric/ed448.py',
   'PYMODULE'),
  ('cryptography.hazmat.primitives.asymmetric.ed25519',
   '/usr/lib/python3/dist-packages/cryptography/hazmat/primitives/asymmetric/ed25519.py',
   'PYMODULE'),
  ('cryptography.hazmat.primitives.asymmetric.ec',
   '/usr/lib/python3/dist-packages/cryptography/hazmat/primitives/asymmetric/ec.py',
   'PYMODULE'),
  ('cryptography.hazmat.primitives.asymmetric.dsa',
   '/usr/lib/python3/dist-packages/cryptography/hazmat/primitives/asymmetric/dsa.py',
   'PYMODULE'),
  ('cryptography.hazmat._types',
   '/usr/lib/python3/dist-packages/cryptography/hazmat/_types.py',
   'PYMODULE'),
  ('cryptography.x509',
   '/usr/lib/python3/dist-packages/cryptography/x509/__init__.py',
   'PYMODULE'),
  ('cryptography.hazmat.backends.openssl.x448',
   '/usr/lib/python3/dist-packages/cryptography/hazmat/backends/openssl/x448.py',
   'PYMODULE'),
  ('cryptography.hazmat.primitives.asymmetric.x448',
   '/usr/lib/python3/dist-packages/cryptography/hazmat/primitives/asymmetric/x448.py',
   'PYMODULE'),
  ('cryptography.hazmat.backends.openssl.x25519',
   '/usr/lib/python3/dist-packages/cryptography/hazmat/backends/openssl/x25519.py',
   'PYMODULE'),
  ('cryptography.hazmat.primitives.asymmetric.x25519',
   '/usr/lib/python3/dist-packages/cryptography/hazmat/primitives/asymmetric/x25519.py',
   'PYMODULE'),
  ('cryptography.hazmat.backends.openssl.utils',
   '/usr/lib/python3/dist-packages/cryptography/hazmat/backends/openssl/utils.py',
   'PYMODULE'),
  ('cryptography.hazmat.backends.openssl.rsa',
   '/usr/lib/python3/dist-packages/cryptography/hazmat/backends/openssl/rsa.py',
   'PYMODULE'),
  ('cryptography.hazmat.primitives.asymmetric.padding',
   '/usr/lib/python3/dist-packages/cryptography/hazmat/primitives/asymmetric/padding.py',
   'PYMODULE'),
  ('cryptography.hazmat.backends.openssl.poly1305',
   '/usr/lib/python3/dist-packages/cryptography/hazmat/backends/openssl/poly1305.py',
   'PYMODULE'),
  ('cryptography.hazmat.backends.openssl.ocsp',
   '/usr/lib/python3/dist-packages/cryptography/hazmat/backends/openssl/ocsp.py',
   'PYMODULE'),
  ('cryptography.x509.ocsp',
   '/usr/lib/python3/dist-packages/cryptography/x509/ocsp.py',
   'PYMODULE'),
  ('cryptography.hazmat.backends.openssl.hmac',
   '/usr/lib/python3/dist-packages/cryptography/hazmat/backends/openssl/hmac.py',
   'PYMODULE'),
  ('cryptography.hazmat.backends.openssl.hashes',
   '/usr/lib/python3/dist-packages/cryptography/hazmat/backends/openssl/hashes.py',
   'PYMODULE'),
  ('cryptography.hazmat.backends.openssl.encode_asn1',
   '/usr/lib/python3/dist-packages/cryptography/hazmat/backends/openssl/encode_asn1.py',
   'PYMODULE'),
  ('cryptography.hazmat.backends.openssl.ed448',
   '/usr/lib/python3/dist-packages/cryptography/hazmat/backends/openssl/ed448.py',
   'PYMODULE'),
  ('cryptography.hazmat.backends.openssl.ed25519',
   '/usr/lib/python3/dist-packages/cryptography/hazmat/backends/openssl/ed25519.py',
   'PYMODULE'),
  ('cryptography.hazmat.backends.openssl.ec',
   '/usr/lib/python3/dist-packages/cryptography/hazmat/backends/openssl/ec.py',
   'PYMODULE'),
  ('cryptography.hazmat.backends.openssl.dsa',
   '/usr/lib/python3/dist-packages/cryptography/hazmat/backends/openssl/dsa.py',
   'PYMODULE'),
  ('cryptography.hazmat.backends.openssl.dh',
   '/usr/lib/python3/dist-packages/cryptography/hazmat/backends/openssl/dh.py',
   'PYMODULE'),
  ('cryptography.hazmat.primitives.asymmetric.dh',
   '/usr/lib/python3/dist-packages/cryptography/hazmat/primitives/asymmetric/dh.py',
   'PYMODULE'),
  ('cryptography.hazmat.backends.openssl.decode_asn1',
   '/usr/lib/python3/dist-packages/cryptography/hazmat/backends/openssl/decode_asn1.py',
   'PYMODULE'),
  ('cryptography.hazmat.backends.openssl.cmac',
   '/usr/lib/python3/dist-packages/cryptography/hazmat/backends/openssl/cmac.py',
   'PYMODULE'),
  ('cryptography.hazmat.primitives.ciphers.modes',
   '/usr/lib/python3/dist-packages/cryptography/hazmat/primitives/ciphers/modes.py',
   'PYMODULE'),
  ('cryptography.hazmat.primitives.ciphers',
   '/usr/lib/python3/dist-packages/cryptography/hazmat/primitives/ciphers/__init__.py',
   'PYMODULE'),
  ('cryptography.hazmat.primitives.ciphers.algorithms',
   '/usr/lib/python3/dist-packages/cryptography/hazmat/primitives/ciphers/algorithms.py',
   'PYMODULE'),
  ('cryptography.hazmat.primitives.ciphers.base',
   '/usr/lib/python3/dist-packages/cryptography/hazmat/primitives/ciphers/base.py',
   'PYMODULE'),
  ('cryptography.hazmat.primitives._cipheralgorithm',
   '/usr/lib/python3/dist-packages/cryptography/hazmat/primitives/_cipheralgorithm.py',
   'PYMODULE'),
  ('cryptography.hazmat.backends.openssl.ciphers',
   '/usr/lib/python3/dist-packages/cryptography/hazmat/backends/openssl/ciphers.py',
   'PYMODULE'),
  ('cryptography.hazmat.backends.openssl.backend',
   '/usr/lib/python3/dist-packages/cryptography/hazmat/backends/openssl/backend.py',
   'PYMODULE'),
  ('cryptography.hazmat.primitives.serialization.ssh',
   '/usr/lib/python3/dist-packages/cryptography/hazmat/primitives/serialization/ssh.py',
   'PYMODULE'),
  ('cryptography.hazmat.primitives.serialization.pkcs7',
   '/usr/lib/python3/dist-packages/cryptography/hazmat/primitives/serialization/pkcs7.py',
   'PYMODULE'),
  ('cryptography.hazmat.primitives.kdf.scrypt',
   '/usr/lib/python3/dist-packages/cryptography/hazmat/primitives/kdf/scrypt.py',
   'PYMODULE'),
  ('cryptography.hazmat.primitives.kdf',
   '/usr/lib/python3/dist-packages/cryptography/hazmat/primitives/kdf/__init__.py',
   'PYMODULE'),
  ('cryptography.hazmat.backends.openssl.aead',
   '/usr/lib/python3/dist-packages/cryptography/hazmat/backends/openssl/aead.py',
   'PYMODULE'),
  ('cryptography.hazmat.primitives.ciphers.aead',
   '/usr/lib/python3/dist-packages/cryptography/hazmat/primitives/ciphers/aead.py',
   'PYMODULE'),
  ('cryptography.hazmat.backends.openssl',
   '/usr/lib/python3/dist-packages/cryptography/hazmat/backends/openssl/__init__.py',
   'PYMODULE'),
  ('cryptography.__about__',
   '/usr/lib/python3/dist-packages/cryptography/__about__.py',
   'PYMODULE'),
  ('cryptography.hazmat.primitives.asymmetric',
   '/usr/lib/python3/dist-packages/cryptography/hazmat/primitives/asymmetric/__init__.py',
   'PYMODULE'),
  ('cryptography.hazmat.primitives.serialization',
   '/usr/lib/python3/dist-packages/cryptography/hazmat/primitives/serialization/__init__.py',
   'PYMODULE'),
  ('cryptography.hazmat.primitives.serialization.base',
   '/usr/lib/python3/dist-packages/cryptography/hazmat/primitives/serialization/base.py',
   'PYMODULE'),
  ('cryptography.hazmat.primitives',
   '/usr/lib/python3/dist-packages/cryptography/hazmat/primitives/__init__.py',
   'PYMODULE'),
  ('cryptography.hazmat.backends',
   '/usr/lib/python3/dist-packages/cryptography/hazmat/backends/__init__.py',
   'PYMODULE'),
  ('jwt', '/usr/lib/python3/dist-packages/jwt/__init__.py', 'PYMODULE'),
  ('jwt.jwks_client',
   '/usr/lib/python3/dist-packages/jwt/jwks_client.py',
   'PYMODULE'),
  ('urllib.request', '/usr/lib/python3.10/urllib/request.py', 'PYMODULE'),
  ('getpass', '/usr/lib/python3.10/getpass.py', 'PYMODULE'),
  ('nturl2path', '/usr/lib/python3.10/nturl2path.py', 'PYMODULE'),
  ('ftplib', '/usr/lib/python3.10/ftplib.py', 'PYMODULE'),
  ('netrc', '/usr/lib/python3.10/netrc.py', 'PYMODULE'),
  ('shlex', '/usr/lib/python3.10/shlex.py', 'PYMODULE'),
  ('mimetypes', '/usr/lib/python3.10/mimetypes.py', 'PYMODULE'),
  ('http.cookiejar', '/usr/lib/python3.10/http/cookiejar.py', 'PYMODULE'),
  ('http', '/usr/lib/python3.10/http/__init__.py', 'PYMODULE'),
  ('ssl', '/usr/lib/python3.10/ssl.py', 'PYMODULE'),
  ('urllib.response', '/usr/lib/python3.10/urllib/response.py', 'PYMODULE'),
  ('urllib.error', '/usr/lib/python3.10/urllib/error.py', 'PYMODULE'),
  ('tempfile', '/usr/lib/python3.10/tempfile.py', 'PYMODULE'),
  ('http.client', '/usr/lib/python3.10/http/client.py', 'PYMODULE'),
  ('json', '/usr/lib/python3.10/json/__init__.py', 'PYMODULE'),
  ('json.encoder', '/usr/lib/python3.10/json/encoder.py', 'PYMODULE'),
  ('json.decoder', '/usr/lib/python3.10/json/decoder.py', 'PYMODULE'),
  ('json.scanner', '/usr/lib/python3.10/json/scanner.py', 'PYMODULE'),
  ('jwt.exceptions',
   '/usr/lib/python3/dist-packages/jwt/exceptions.py',
   'PYMODULE'),
  ('jwt.api_jwt', '/usr/lib/python3/dist-packages/jwt/api_jwt.py', 'PYMODULE'),
  ('jwt.api_jws', '/usr/lib/python3/dist-packages/jwt/api_jws.py', 'PYMODULE'),
  ('jwt.utils', '/usr/lib/python3/dist-packages/jwt/utils.py', 'PYMODULE'),
  ('jwt.algorithms',
   '/usr/lib/python3/dist-packages/jwt/algorithms.py',
   'PYMODULE'),
  ('jwt.api_jwk', '/usr/lib/python3/dist-packages/jwt/api_jwk.py', 'PYMODULE')],
 [('libpython3.10.so.1.0',
   '/lib/x86_64-linux-gnu/libpython3.10.so.1.0',
   'BINARY'),
  ('lib-dynload/_contextvars.cpython-310-x86_64-linux-gnu.so',
   '/usr/lib/python3.10/lib-dynload/_contextvars.cpython-310-x86_64-linux-gnu.so',
   'EXTENSION'),
  ('lib-dynload/_decimal.cpython-310-x86_64-linux-gnu.so',
   '/usr/lib/python3.10/lib-dynload/_decimal.cpython-310-x86_64-linux-gnu.so',
   'EXTENSION'),
  ('lib-dynload/_hashlib.cpython-310-x86_64-linux-gnu.so',
   '/usr/lib/python3.10/lib-dynload/_hashlib.cpython-310-x86_64-linux-gnu.so',
   'EXTENSION'),
  ('lib-dynload/_lzma.cpython-310-x86_64-linux-gnu.so',
   '/usr/lib/python3.10/lib-dynload/_lzma.cpython-310-x86_64-linux-gnu.so',
   'EXTENSION'),
  ('lib-dynload/_bz2.cpython-310-x86_64-linux-gnu.so',
   '/usr/lib/python3.10/lib-dynload/_bz2.cpython-310-x86_64-linux-gnu.so',
   'EXTENSION'),
  ('lib-dynload/resource.cpython-310-x86_64-linux-gnu.so',
   '/usr/lib/python3.10/lib-dynload/resource.cpython-310-x86_64-linux-gnu.so',
   'EXTENSION'),
  ('lib-dynload/_opcode.cpython-310-x86_64-linux-gnu.so',
   '/usr/lib/python3.10/lib-dynload/_opcode.cpython-310-x86_64-linux-gnu.so',
   'EXTENSION'),
  ('lib-dynload/_multibytecodec.cpython-310-x86_64-linux-gnu.so',
   '/usr/lib/python3.10/lib-dynload/_multibytecodec.cpython-310-x86_64-linux-gnu.so',
   'EXTENSION'),
  ('lib-dynload/_codecs_jp.cpython-310-x86_64-linux-gnu.so',
   '/usr/lib/python3.10/lib-dynload/_codecs_jp.cpython-310-x86_64-linux-gnu.so',
   'EXTENSION'),
  ('lib-dynload/_codecs_kr.cpython-310-x86_64-linux-gnu.so',
   '/usr/lib/python3.10/lib-dynload/_codecs_kr.cpython-310-x86_64-linux-gnu.so',
   'EXTENSION'),
  ('lib-dynload/_codecs_iso2022.cpython-310-x86_64-linux-gnu.so',
   '/usr/lib/python3.10/lib-dynload/_codecs_iso2022.cpython-310-x86_64-linux-gnu.so',
   'EXTENSION'),
  ('lib-dynload/_codecs_cn.cpython-310-x86_64-linux-gnu.so',
   '/usr/lib/python3.10/lib-dynload/_codecs_cn.cpython-310-x86_64-linux-gnu.so',
   'EXTENSION'),
  ('lib-dynload/_codecs_tw.cpython-310-x86_64-linux-gnu.so',
   '/usr/lib/python3.10/lib-dynload/_codecs_tw.cpython-310-x86_64-linux-gnu.so',
   'EXTENSION'),
  ('lib-dynload/_codecs_hk.cpython-310-x86_64-linux-gnu.so',
   '/usr/lib/python3.10/lib-dynload/_codecs_hk.cpython-310-x86_64-linux-gnu.so',
   'EXTENSION'),
  ('_cffi_backend.cpython-310-x86_64-linux-gnu.so',
   '/usr/lib/python3/dist-packages/_cffi_backend.cpython-310-x86_64-linux-gnu.so',
   'EXTENSION'),
  ('cryptography/hazmat/bindings/_openssl.abi3.so',
   '/usr/lib/python3/dist-packages/cryptography/hazmat/bindings/_openssl.abi3.so',
   'EXTENSION'),
  ('lib-dynload/termios.cpython-310-x86_64-linux-gnu.so',
   '/usr/lib/python3.10/lib-dynload/termios.cpython-310-x86_64-linux-gnu.so',
   'EXTENSION'),
  ('lib-dynload/_ssl.cpython-310-x86_64-linux-gnu.so',
   '/usr/lib/python3.10/lib-dynload/_ssl.cpython-310-x86_64-linux-gnu.so',
   'EXTENSION'),
  ('lib-dynload/_json.cpython-310-x86_64-linux-gnu.so',
   '/usr/lib/python3.10/lib-dynload/_json.cpython-310-x86_64-linux-gnu.so',
   'EXTENSION'),
  ('libexpat.so.1', '/lib/x86_64-linux-gnu/libexpat.so.1', 'BINARY'),
  ('libz.so.1', '/lib/x86_64-linux-gnu/libz.so.1', 'BINARY'),
  ('libmpdec.so.3', '/lib/x86_64-linux-gnu/libmpdec.so.3', 'BINARY'),
  ('libcrypto.so.3', '/lib/x86_64-linux-gnu/libcrypto.so.3', 'BINARY'),
  ('liblzma.so.5', '/lib/x86_64-linux-gnu/liblzma.so.5', 'BINARY'),
  ('libbz2.so.1.0', '/lib/x86_64-linux-gnu/libbz2.so.1.0', 'BINARY'),
  ('libffi.so.8', '/lib/x86_64-linux-gnu/libffi.so.8', 'BINARY'),
  ('libssl.so.3', '/lib/x86_64-linux-gnu/libssl.so.3', 'BINARY')],
 [],
 [],
 [('base_library.zip',
   '/home/tamamo/git/konglocal/build/gen/base_library.zip',
   'DATA'),
  ('cryptography-3.4.8.egg-info/requires.txt',
   '/usr/lib/python3/dist-packages/cryptography-3.4.8.egg-info/requires.txt',
   'DATA'),
  ('cryptography-3.4.8.egg-info/not-zip-safe',
   '/usr/lib/python3/dist-packages/cryptography-3.4.8.egg-info/not-zip-safe',
   'DATA'),
  ('cryptography-3.4.8.egg-info/top_level.txt',
   '/usr/lib/python3/dist-packages/cryptography-3.4.8.egg-info/top_level.txt',
   'DATA'),
  ('cryptography-3.4.8.egg-info/dependency_links.txt',
   '/usr/lib/python3/dist-packages/cryptography-3.4.8.egg-info/dependency_links.txt',
   'DATA'),
  ('cryptography-3.4.8.egg-info/PKG-INFO',
   '/usr/lib/python3/dist-packages/cryptography-3.4.8.egg-info/PKG-INFO',
   'DATA')])
