('/home/tamamo/git/konglocal/build/gen/gen.pkg',
 {'BINARY': True,
  'DATA': True,
  'EXECUTABLE': True,
  'EXTENSION': True,
  'PYMODULE': True,
  'PYSOURCE': True,
  'PYZ': False,
  'SPLASH': True,
  'SYMLINK': False},
 [('pyi-contents-directory _internal', '', 'OPTION'),
  ('PYZ-00.pyz', '/home/tamamo/git/konglocal/build/gen/PYZ-00.pyz', 'PYZ'),
  ('struct',
   '/home/tamamo/git/konglocal/build/gen/localpycs/struct.pyc',
   'PYMODULE'),
  ('pyimod01_archive',
   '/home/tamamo/git/konglocal/build/gen/localpycs/pyimod01_archive.pyc',
   'PYMODULE'),
  ('pyimod02_importers',
   '/home/tamamo/git/konglocal/build/gen/localpycs/pyimod02_importers.pyc',
   'PYMODULE'),
  ('pyimod03_ctypes',
   '/home/tamamo/git/konglocal/build/gen/localpycs/pyimod03_ctypes.pyc',
   'PYMODULE'),
  ('pyiboot01_bootstrap',
   '/usr/local/lib/python3.10/dist-packages/PyInstaller/loader/pyiboot01_bootstrap.py',
   'PYSOURCE'),
  ('pyi_rth_inspect',
   '/usr/local/lib/python3.10/dist-packages/PyInstaller/hooks/rthooks/pyi_rth_inspect.py',
   'PYSOURCE'),
  ('gen', '/home/tamamo/git/konglocal/gen.py', 'PYSOURCE'),
  ('libpython3.10.so.1.0',
   '/lib/x86_64-linux-gnu/libpython3.10.so.1.0',
   'BINARY'),
  ('lib-dynload/_contextvars.cpython-310-x86_64-linux-gnu.so',
   '/usr/lib/python3.10/lib-dynload/_contextvars.cpython-310-x86_64-linux-gnu.so',
   'EXTENSION'),
  ('lib-dynload/_decimal.cpython-310-x86_64-linux-gnu.so',
   '/usr/lib/python3.10/lib-dynload/_decimal.cpython-310-x86_64-linux-gnu.so',
   'EXTENSION'),
  ('lib-dynload/_hashlib.cpython-310-x86_64-linux-gnu.so',
   '/usr/lib/python3.10/lib-dynload/_hashlib.cpython-310-x86_64-linux-gnu.so',
   'EXTENSION'),
  ('lib-dynload/_lzma.cpython-310-x86_64-linux-gnu.so',
   '/usr/lib/python3.10/lib-dynload/_lzma.cpython-310-x86_64-linux-gnu.so',
   'EXTENSION'),
  ('lib-dynload/_bz2.cpython-310-x86_64-linux-gnu.so',
   '/usr/lib/python3.10/lib-dynload/_bz2.cpython-310-x86_64-linux-gnu.so',
   'EXTENSION'),
  ('lib-dynload/resource.cpython-310-x86_64-linux-gnu.so',
   '/usr/lib/python3.10/lib-dynload/resource.cpython-310-x86_64-linux-gnu.so',
   'EXTENSION'),
  ('lib-dynload/_opcode.cpython-310-x86_64-linux-gnu.so',
   '/usr/lib/python3.10/lib-dynload/_opcode.cpython-310-x86_64-linux-gnu.so',
   'EXTENSION'),
  ('lib-dynload/_multibytecodec.cpython-310-x86_64-linux-gnu.so',
   '/usr/lib/python3.10/lib-dynload/_multibytecodec.cpython-310-x86_64-linux-gnu.so',
   'EXTENSION'),
  ('lib-dynload/_codecs_jp.cpython-310-x86_64-linux-gnu.so',
   '/usr/lib/python3.10/lib-dynload/_codecs_jp.cpython-310-x86_64-linux-gnu.so',
   'EXTENSION'),
  ('lib-dynload/_codecs_kr.cpython-310-x86_64-linux-gnu.so',
   '/usr/lib/python3.10/lib-dynload/_codecs_kr.cpython-310-x86_64-linux-gnu.so',
   'EXTENSION'),
  ('lib-dynload/_codecs_iso2022.cpython-310-x86_64-linux-gnu.so',
   '/usr/lib/python3.10/lib-dynload/_codecs_iso2022.cpython-310-x86_64-linux-gnu.so',
   'EXTENSION'),
  ('lib-dynload/_codecs_cn.cpython-310-x86_64-linux-gnu.so',
   '/usr/lib/python3.10/lib-dynload/_codecs_cn.cpython-310-x86_64-linux-gnu.so',
   'EXTENSION'),
  ('lib-dynload/_codecs_tw.cpython-310-x86_64-linux-gnu.so',
   '/usr/lib/python3.10/lib-dynload/_codecs_tw.cpython-310-x86_64-linux-gnu.so',
   'EXTENSION'),
  ('lib-dynload/_codecs_hk.cpython-310-x86_64-linux-gnu.so',
   '/usr/lib/python3.10/lib-dynload/_codecs_hk.cpython-310-x86_64-linux-gnu.so',
   'EXTENSION'),
  ('_cffi_backend.cpython-310-x86_64-linux-gnu.so',
   '/usr/lib/python3/dist-packages/_cffi_backend.cpython-310-x86_64-linux-gnu.so',
   'EXTENSION'),
  ('cryptography/hazmat/bindings/_openssl.abi3.so',
   '/usr/lib/python3/dist-packages/cryptography/hazmat/bindings/_openssl.abi3.so',
   'EXTENSION'),
  ('lib-dynload/termios.cpython-310-x86_64-linux-gnu.so',
   '/usr/lib/python3.10/lib-dynload/termios.cpython-310-x86_64-linux-gnu.so',
   'EXTENSION'),
  ('lib-dynload/_ssl.cpython-310-x86_64-linux-gnu.so',
   '/usr/lib/python3.10/lib-dynload/_ssl.cpython-310-x86_64-linux-gnu.so',
   'EXTENSION'),
  ('lib-dynload/_json.cpython-310-x86_64-linux-gnu.so',
   '/usr/lib/python3.10/lib-dynload/_json.cpython-310-x86_64-linux-gnu.so',
   'EXTENSION'),
  ('libexpat.so.1', '/lib/x86_64-linux-gnu/libexpat.so.1', 'BINARY'),
  ('libz.so.1', '/lib/x86_64-linux-gnu/libz.so.1', 'BINARY'),
  ('libmpdec.so.3', '/lib/x86_64-linux-gnu/libmpdec.so.3', 'BINARY'),
  ('libcrypto.so.3', '/lib/x86_64-linux-gnu/libcrypto.so.3', 'BINARY'),
  ('liblzma.so.5', '/lib/x86_64-linux-gnu/liblzma.so.5', 'BINARY'),
  ('libbz2.so.1.0', '/lib/x86_64-linux-gnu/libbz2.so.1.0', 'BINARY'),
  ('libffi.so.8', '/lib/x86_64-linux-gnu/libffi.so.8', 'BINARY'),
  ('libssl.so.3', '/lib/x86_64-linux-gnu/libssl.so.3', 'BINARY'),
  ('base_library.zip',
   '/home/tamamo/git/konglocal/build/gen/base_library.zip',
   'DATA'),
  ('cryptography-3.4.8.egg-info/requires.txt',
   '/usr/lib/python3/dist-packages/cryptography-3.4.8.egg-info/requires.txt',
   'DATA'),
  ('cryptography-3.4.8.egg-info/not-zip-safe',
   '/usr/lib/python3/dist-packages/cryptography-3.4.8.egg-info/not-zip-safe',
   'DATA'),
  ('cryptography-3.4.8.egg-info/top_level.txt',
   '/usr/lib/python3/dist-packages/cryptography-3.4.8.egg-info/top_level.txt',
   'DATA'),
  ('cryptography-3.4.8.egg-info/dependency_links.txt',
   '/usr/lib/python3/dist-packages/cryptography-3.4.8.egg-info/dependency_links.txt',
   'DATA'),
  ('cryptography-3.4.8.egg-info/PKG-INFO',
   '/usr/lib/python3/dist-packages/cryptography-3.4.8.egg-info/PKG-INFO',
   'DATA')],
 'libpython3.10.so.1.0',
 False,
 False,
 False,
 [],
 None,
 None,
 None)
